<svg xmlns="http://www.w3.org/2000/svg" xmlns:xlink="http://www.w3.org/1999/xlink" width="33.557" height="34.726" viewBox="0 0 33.557 34.726">
  <defs>
    <linearGradient id="linear-gradient" x1="0.5" x2="0.5" y2="1" gradientUnits="objectBoundingBox">
      <stop offset="0" stop-color="#00a05a"/>
      <stop offset="1" stop-color="#007f9e"/>
    </linearGradient>
  </defs>
  <g id="Layer_10" transform="translate(-2.47 -2)">
    <path id="Path_15228" data-name="Path 15228" d="M21.306,8.468H10.64A1.836,1.836,0,0,1,8.805,6.632v-2.8A1.836,1.836,0,0,1,10.64,2H21.306a1.836,1.836,0,0,1,1.835,1.835v2.8A1.835,1.835,0,0,1,21.306,8.468Z" transform="translate(1.522)" fill="url(#linear-gradient)"/>
    <path id="Path_15229" data-name="Path 15229" d="M29.895,18.156a2.934,2.934,0,0,0-4.142,0L24.4,19.517l4.145,4.144,1.352-1.352a2.925,2.925,0,0,0,0-4.153Z" transform="translate(5.267 3.675)" fill="url(#linear-gradient)"/>
    <path id="Path_15230" data-name="Path 15230" d="M24.9,20.15l-7.23,7.218a1.134,1.134,0,0,0-.285.57l-.546,3.212a1.046,1.046,0,0,0,1.2,1.2l3.212-.546a1.05,1.05,0,0,0,.558-.285l7.23-7.23Z" transform="translate(3.449 4.36)" fill="url(#linear-gradient)"/>
    <path id="Path_15231" data-name="Path 15231" d="M28.068,4.61H26.524v1.4a3.7,3.7,0,0,1-3.7,3.7H12.162a3.7,3.7,0,0,1-3.7-3.7V4.61H6.9A4.43,4.43,0,0,0,2.47,9.038V31.671A4.43,4.43,0,0,0,6.9,36.1H18.626a2.863,2.863,0,0,1-.167-1.535L19,31.36a2.992,2.992,0,0,1,.749-1.52l7.894-7.883L29.7,19.893a4.733,4.733,0,0,1,2.794-1.347V9.05a4.413,4.413,0,0,0-4.425-4.44Zm-12.5,18.4H10.183a1.116,1.116,0,1,1,0-2.232h5.381a1.116,1.116,0,0,1,0,2.232Zm6.588-6.335H10.184a1.116,1.116,0,1,1,0-2.232H22.152a1.116,1.116,0,1,1,0,2.232Z" transform="translate(0 0.627)" fill="url(#linear-gradient)"/>
  </g>
</svg>
